<?xml version="1.0" encoding="UTF-8" standalone="no"?>
<!-- Created with Inkscape (http://www.inkscape.org/) -->

<svg
   xmlns:dc="http://purl.org/dc/elements/1.1/"
   xmlns:cc="http://creativecommons.org/ns#"
   xmlns:rdf="http://www.w3.org/1999/02/22-rdf-syntax-ns#"
   xmlns:svg="http://www.w3.org/2000/svg"
   xmlns="http://www.w3.org/2000/svg"
   xmlns:xlink="http://www.w3.org/1999/xlink"
   xmlns:sodipodi="http://sodipodi.sourceforge.net/DTD/sodipodi-0.dtd"
   xmlns:inkscape="http://www.inkscape.org/namespaces/inkscape"
   width="210mm"
   height="297mm"
   viewBox="0 0 210 297"
   version="1.1"
   id="svg8"
   inkscape:version="0.92.3 (2405546, 2018-03-11)"
   sodipodi:docname="0_title.svg"
   inkscape:export-filename="/srv/2021_klettern-im-ennstal/tex/include/0_title.png"
   inkscape:export-xdpi="150"
   inkscape:export-ydpi="150">
  <defs
     id="defs2" />
  <sodipodi:namedview
     id="base"
     pagecolor="#ffffff"
     bordercolor="#666666"
     borderopacity="1.0"
     inkscape:pageopacity="0.0"
     inkscape:pageshadow="2"
     inkscape:zoom="2.8"
     inkscape:cx="634.74189"
     inkscape:cy="979.27918"
     inkscape:document-units="mm"
     inkscape:current-layer="layer1"
     showgrid="false"
     showguides="true"
     inkscape:guide-bbox="true"
     inkscape:window-width="1609"
     inkscape:window-height="1019"
     inkscape:window-x="288"
     inkscape:window-y="97"
     inkscape:window-maximized="0"
     inkscape:measure-start="706.429,921.071"
     inkscape:measure-end="752.754,1090.52">
    <sodipodi:guide
       position="99.02976,0"
       orientation="0,1"
       id="guide815"
       inkscape:locked="false" />
    <sodipodi:guide
       position="70.425521,296.93645"
       orientation="0,1"
       id="guide817"
       inkscape:locked="false" />
    <sodipodi:guide
       position="94.613413,212.74654"
       orientation="0,1"
       id="guide819"
       inkscape:locked="false" />
    <sodipodi:guide
       position="98.355184,130.42753"
       orientation="0,1"
       id="guide821"
       inkscape:locked="false" />
    <sodipodi:guide
       position="30.164272,157.95566"
       orientation="1,0"
       id="guide831"
       inkscape:locked="false" />
    <sodipodi:guide
       position="65.389881,97.517857"
       orientation="1,0"
       id="guide924"
       inkscape:locked="false" />
  </sodipodi:namedview>
  <metadata
     id="metadata5">
    <rdf:RDF>
      <cc:Work
         rdf:about="">
        <dc:format>image/svg+xml</dc:format>
        <dc:type
           rdf:resource="http://purl.org/dc/dcmitype/StillImage" />
        <dc:title />
      </cc:Work>
    </rdf:RDF>
  </metadata>
  <g
     inkscape:label="title text"
     inkscape:groupmode="layer"
     id="layer1"
     style="display:inline">
    <text
       xml:space="preserve"
       style="font-style:normal;font-weight:normal;font-size:3.52777767px;line-height:125%;font-family:sans-serif;letter-spacing:0px;word-spacing:0px;fill:#000000;fill-opacity:1;stroke:none;stroke-width:0.26458332px;stroke-linecap:butt;stroke-linejoin:miter;stroke-opacity:1"
       x="64.939804"
       y="140.38007"
       id="text825"><tspan
         sodipodi:role="line"
         id="tspan823"
         x="64.939804"
         y="140.38007"
         style="font-style:normal;font-variant:normal;font-weight:bold;font-stretch:normal;font-size:11.28888893px;line-height:114.99999762%;font-family:sans-serif;-inkscape-font-specification:'sans-serif Bold';stroke-width:0.26458332px">Klettern </tspan><tspan
         sodipodi:role="line"
         x="64.939804"
         y="153.36229"
         style="font-style:normal;font-variant:normal;font-weight:bold;font-stretch:normal;font-size:11.28888893px;line-height:114.99999762%;font-family:sans-serif;-inkscape-font-specification:'sans-serif Bold';stroke-width:0.26458332px"
         id="tspan916">von Steyr </tspan><tspan
         sodipodi:role="line"
         x="64.939804"
         y="166.34451"
         style="font-style:normal;font-variant:normal;font-weight:bold;font-stretch:normal;font-size:11.28888893px;line-height:114.99999762%;font-family:sans-serif;-inkscape-font-specification:'sans-serif Bold';stroke-width:0.26458332px"
         id="tspan918">bis Weyer</tspan></text>
    <text
       xml:space="preserve"
       style="font-style:normal;font-weight:normal;font-size:3.52777767px;line-height:125%;font-family:sans-serif;letter-spacing:0px;word-spacing:0px;fill:#000000;fill-opacity:1;stroke:none;stroke-width:0.26458332px;stroke-linecap:butt;stroke-linejoin:miter;stroke-opacity:1"
       x="195.32475"
       y="22.514978"
       id="text835"><tspan
         sodipodi:role="line"
         x="195.32475"
         y="22.514978"
         style="font-size:4.93888903px;line-height:125.09999275%;text-align:end;text-anchor:end;stroke-width:0.26458332px"
         id="tspan839">Fast 1000 Routen</tspan><tspan
         sodipodi:role="line"
         x="195.32475"
         y="28.693529"
         style="font-size:4.93888903px;line-height:125.09999275%;text-align:end;text-anchor:end;stroke-width:0.26458332px"
         id="tspan841">In 25 Gebieten</tspan><tspan
         sodipodi:role="line"
         x="195.32475"
         y="34.872078"
         style="font-size:4.93888903px;line-height:125.09999275%;text-align:end;text-anchor:end;stroke-width:0.26458332px"
         id="tspan843">mit 30+ Fotos</tspan><tspan
         sodipodi:role="line"
         x="195.32475"
         y="41.050629"
         style="font-size:4.93888903px;line-height:125.09999275%;text-align:end;text-anchor:end;stroke-width:0.26458332px"
         id="tspan845">Lokale Angebote</tspan><tspan
         sodipodi:role="line"
         x="195.32475"
         y="47.229179"
         style="font-size:4.93888903px;line-height:125.09999275%;text-align:end;text-anchor:end;stroke-width:0.26458332px"
         id="tspan847">Familientauglich</tspan><tspan
         sodipodi:role="line"
         x="196.89709"
         y="53.407726"
         style="font-size:4.93888903px;line-height:125.09999275%;text-align:end;text-anchor:end;stroke-width:0.26458332px"
         id="tspan849">Bewertete Gebietsübersicht </tspan><tspan
         sodipodi:role="line"
         x="195.32475"
         y="59.586277"
         style="font-size:4.93888903px;line-height:125.09999275%;text-align:end;text-anchor:end;stroke-width:0.26458332px"
         id="tspan922">in leicht, mittel und schwer</tspan><tspan
         sodipodi:role="line"
         x="195.32475"
         y="64.513855"
         style="font-size:4.93888903px;line-height:125.09999275%;text-align:end;text-anchor:end;stroke-width:0.26458332px"
         id="tspan851" /></text>
    <text
       xml:space="preserve"
       style="font-style:normal;font-weight:normal;font-size:3.52777767px;line-height:125%;font-family:sans-serif;letter-spacing:0px;word-spacing:0px;fill:#000000;fill-opacity:1;stroke:none;stroke-width:0.26458332px;stroke-linecap:butt;stroke-linejoin:miter;stroke-opacity:1"
       x="66.03334"
       y="177.04286"
       id="text829-3"><tspan
         sodipodi:role="line"
         id="tspan827-6"
         x="66.03334"
         y="177.04286"
         style="font-size:4.93888903px;line-height:125.99999905%;stroke-width:0.26458332px">Die Klettergebiete im unteren Ennstal. </tspan><tspan
         sodipodi:role="line"
         x="66.03334"
         y="183.26587"
         style="font-size:4.93888903px;line-height:125.99999905%;stroke-width:0.26458332px"
         id="tspan920">Auch auf www.klettern-im-ennstal.at</tspan></text>
    <image
       y="8.4678011"
       x="199.16612"
       id="image2263"
       xlink:href="data:image/png;base64,iVBORw0KGgoAAAANSUhEUgAAABkAAANFCAYAAACOTVdyAAAABHNCSVQICAgIfAhkiAAAABl0RVh0 U29mdHdhcmUAZ25vbWUtc2NyZWVuc2hvdO8Dvz4AAAGLSURBVHic7dyxDcJADAXQc4iEWICaCegY gbUoswBFGjbILNmAHjEBXcIGVDiRLu8v8KTvxoXlKPfbXJLTZAMQSGKm1wJIc1yirl0tM4FAIBDI ykg8L1cbJAQCgUAgEAgEAoFAIBAIBAKBQCAQCAQCgUAgEAgEAoFAIBAIBAKBQCAQCAQCgUAgEAgE AoFAIBAIBAKBQCAQyIaR+DxOHlJBIBAIBAKBQCAQCAQCgUAgEAgEAoFAIBAIBAKBQCAQCAQCgUD+ kbbbn9OReuqCQCAQCAQCgUAgEAgEAoFAIBAIBAKBQCAQCAQCgUAgEAgEAoFAIBAIBAKBQCAQCAQC gUAgEAgEAoFAIBAIBAKBQCAQCAQCgUAgEAgEAoFAIBAIBAKBQCAQCAQCgUAgEAgEAoFAIBAIBAKB QCAQCAQCgUAgEAgEAoFAIBAIBAKBQCpD4tAPczZST10QCAQCgUAgEAgEAoFAIBAIBAKBQCAQCAQC gUAgEAgEAoFAIJAfifdY3KZCIBAIBAKBQLaIfAGJ9xVZPsNV2AAAAABJRU5ErkJggg== "
       style="display:inline;image-rendering:optimizeQuality"
       preserveAspectRatio="none"
       height="64.528679"
       width="2.322516" />
  </g>
  <g
     inkscape:groupmode="layer"
     id="layer2"
     inkscape:label="skala" />
</svg>
